*** Life<FredkinCell> 10x10 ***

Generation = 0, Population = 8.
--00-----0
----------
----------
----------
----0-----
----------
----0-0---
----------
--------0-
-------0--

Generation = 1, Population = 19.
-0110---0-
--00-----0
----------
----0-----
---0-0----
------0---
---0---0--
----0-0-0-
---------0
------0---

Generation = 2, Population = 20.
012210-0--
----------
--000----0
----------
--0-0-----
----------
--0---0---
-------0--
----0-----
-----0-0-0

Generation = 3, Population = 27.
1----1--0-
00---0-0-0
-01-10--0-
---0-----0
-0---0----
----0-0---
-0-0-0----
--0-0---0-
---0-----0
----------

Generation = 4, Population = 20.
2---120---
----------
--202-0--0
----------
0-00-----0
-------0--
0-0-----0-
-------0--
----------
---0-----0

Generation = 5, Population = 38.
-1-22-10--
0-00-0---0
-03-3--00-
0---0-0---
--110--00-
---0--0--0
---0---0-0
0-0---0---
---0---0-0
--0-0---0-

Generation = 6, Population = 39.
--2-322100
----------
01-04--11-
-------0--
0022-0011-
-----0-0-1
0--10-0--1
---0-0-0--
0-0-----0-
-0-0-0----

Generation = 7, Population = 47.
-1--4----1
0000-00--0
12-1500-20
--0-00--0-
1--3----2-
-00--1-102
-00-1--002
---10-0--0
-0-0-----0
--0---0-0-

Generation = 8, Population = 18.
-2----2-02
-------0--
----6-----
-------0--
--2-------
----------
0--12---13
----------
0-01-----1
-----0----

Generation = 9, Population = 46.
2-2--2-113
-0--0----0
---1-0----
--0-0-0-0-
-0-3---1--
0-000---02
-00230-024
--0-0---0-
--1200--0-
0-000-0--0

*** Life<FredkinCell> 11x11 ***

Generation = 0, Population = 8.
-----------
-----------
-----------
-0-------0-
-----------
-------0---
0----------
-----------
--0--------
---------0-
0-0--------

Generation = 1, Population = 24.
-----------
-----------
-0-------0-
0-0-----0-0
-0-----0-0-
0-----0-0--
-0-----0---
0-0--------
-0-0-----0-
0-------0-0
---0-----0-

Generation = 2, Population = 16.
-----------
-0-------0-
-----------
---0-------
0----------
-0---0-----
0----------
-------0-0-
0-0-0------
-------0---
0-0-0------

Generation = 3, Population = 31.
-0-------0-
0-0-----0-0
-0-0-----0-
0-0-0------
---0-0-----
0-0-0-0----
-----0-0-0-
--0-0-0---0
-----0---0-
------0-0--
-----0-0---

Generation = 4, Population = 17.
-----------
-------0---
0----------
-0-------0-
--0--------
---0-----0-
0---0------
-0-------0-
--0---0----
-----0-0---
----0-0----

Generation = 5, Population = 22.
-------0---
0-----0-0--
-------0-0-
--------0-0
-----------
0-------0-0
-----0-----
----0-0-0-0
---0-----0-
--0-----0--
---0-0-----

Generation = 6, Population = 20.
0----------
-0---0-----
0----------
---------0-
0----------
-0---0-0---
0----------
-----0---0-
------0-0--
-0-0-0-0---
------0-0--

Generation = 7, Population = 31.
-----0-----
0-0-0-0----
-----0---0-
--------0-0
-----0-0-0-
0-0-0---0--
-------0-0-
0---0-----0
-0-0-0-0---
0-------0--
-0-0---0-0-

Generation = 8, Population = 23.
0-0--------
-------0-0-
0-0--------
-----------
0-0--------
-------0-0-
--0---0-0--
-----------
0---0-----0
-0---0-0---
----0-0-0-0

Generation = 9, Population = 34.
---0---0-0-
------0---0
---0---0-0-
-----------
---0---0-0-
0-------0-0
-0-0-0-0---
0-0-0-0-0-0
---0---0-0-
--0-0-0----
-0-0-0-0---

*** Life<FredkinCell> 12x12 ***

Generation = 0, Population = 8.
------------
--0---------
------------
------------
0-----------
----------0-
------------
-0--------0-
-----0------
------------
------------
---------0-0

Generation = 1, Population = 24.
--0---------
-0-0--------
--0---------
0-----------
-0--------0-
0--------0-0
-0----------
0-0--0---0-0
-0--0-0---0-
-----0------
---------0-0
--------0---

Generation = 2, Population = 24.
------------
0---0-------
0-----------
--0-------0-
0-0---------
-0------0-0-
0----0------
---0----0-0-
---0---0----
-0-------000
-----0------
-------0---0

Generation = 3, Population = 58.
0---0-------
10-0-0------
100-0-----0-
-010-----0-0
-010----0---
0----0-0---0
---00-0-----
0-0100-----0
-0010-0--0-0
0-00-0-001-1
-0--0-00-00-
-----00-0-0-

Generation = 4, Population = 31.
1-----------
2-0---0---0-
------------
-1--------0-
--2-00------
--0---0---0-
------------
-0---10--001
01-------1--
---------202
------------
-0---1-0-010

Generation = 5, Population = 61.
200---0---0-
3--0-0-0-0-0
100---0-----
0---00---0-0
--3-11------
-0100--0-0-0
-00--0---0-0
-10-02100--2
1-0--00-0-0-
00------0--3
-0---0-0----
0-0-0----1-1

Generation = 6, Population = 46.
--1---------
-00-------0-
2-1-00------
1--0----0---
0-402-00----
0----00--1-1
011-01---1--
--1-1-2----3
2-11---0---0
------0-12--
01-------0--
-0-----00---

Generation = 7, Population = 72.
--20------0-
-11000---0-0
3020110-0-0-
-111000--0--
--5131-1-0-0
---00---02--
------0-020-
---122---004
---2--0--101
-000-0-02-03
1-0---00010-
-10---011---

Generation = 8, Population = 25.
-----0------
----1-------
4-----------
---------1-0
------0-0---
------0--3-1
------------
--1--32--1--
-1---0-----2
-11-------1-
------------
-2-0-1-2--1-

Generation = 9, Population = 44.
------0-----
3--0--------
-0--1----0-0
1-----0-----
-----11--0--
-----010----
--1--1-----0
---12-300-04
221-01---1--
0-20-0---2--
--00-0-0----
0-------11-1

*** Life<FredkinCell> 13x13 ***

Generation = 0, Population = 8.
-------------
--0----------
---0---------
-------------
-----0--0----
-------------
0------------
-------------
-0-----------
-------------
-------------
0---------0--
-------------

Generation = 1, Population = 26.
--0----------
-0-----------
----0--------
---0-0--0----
----0-00-0---
0----0--0----
-0-----------
00-----------
0-0----------
-0-----------
0---------0--
-0-------0-0-
0---------0--

Generation = 2, Population = 24.
---0---------
0---0--------
-0------0----
--0----------
0-----11--0--
-------------
010--0--0----
-------------
1--0---------
0---------0--
-0-----------
0-0-----0---0
-------------

Generation = 3, Population = 62.
0-0----------
-----0--0----
----0--0-0---
0--0--000-0--
-00--02200-0-
-00--0000-0--
1-100-00-0---
-000-0--0----
200-0-----0--
1--0-----0-0-
0-------0-0-0
-0-0---0-0-0-
0-0-----0---0

Generation = 4, Population = 27.
---0-0--0----
0-0---0------
0------1-----
-------------
----0----1--0
--1----------
--211--------
0---------0--
-1------0----
-------------
1------------
0-0-0-0---0-0
-0-----------

Generation = 5, Population = 57.
0------0-0---
1-------0----
100-----0----
0---0--0-0--0
--00-0--0-00-
-02------0--0
11--20----0--
--000---00-0-
--0----0-00--
10------0----
200-0-0---0-0
10-----0-0---
----0-0---0-0

Generation = 6, Population = 51.
10----0-0-0--
--0-----1----
2-100---1---0
1-----0------
0--10-2---110
----0-----0--
2-2--10-00--0
0-------1---0
2-1-0-0---1--
--0-0-0-----0
3-1-----0----
------0---0--
00-0---------

Generation = 7, Population = 90.
21---0--1--0-
--1-0-00-00-0
3---100120-0-
-00--0100-00-
1002--32-1--1
--2-1---0-1--
3--1-21--1-01
-0--00-02-001
3-2-1-1000-0-
-0--1-100-00-
--200--0-00-0
-000-0-000-0-
11--0-0---0--

Generation = 8, Population = 29.
32-----------
----1-----1--
---0-1--3--1-
1---------1--
21-3------1--
--3----------
------2-0----
0---------1--
-----0---1---
--0----------
-0-1---------
--1---0------
2----0--0----

Generation = 9, Population = 60.
430-0-----0--
10------10---
3-1-1-01-00-0
2----0--002--
-20-0----121-
0-----0-0-1--
3-2--2---10--
-0---00-2--0-
3-2-1-1-0----
-----0---0---
3---0-0------
1------00----
-10-0--0-0---

*** Life<FredkinCell> 14x14 ***

Generation = 0, Population = 8.
--------------
--0----------0
--------------
----0---------
---0----------
--------------
--0-----------
----------0---
-------0------
--------------
--------------
--------------
--------------
-------0------

Generation = 1, Population = 26.
--0----------0
-0-0--------0-
--0-0--------0
-----0--------
--0-----------
--00----------
-0-0------0---
--0----0-0-0--
------0-0-0---
-------0------
--------------
--------------
-------0------
------0-0-----

Generation = 2, Population = 26.
--------------
0----------0-0
---0----------
------0------0
-01--0--------
----0-----0---
0--10--0------
--------0---0-
--0--0---0----
----------0---
-------0------
-------0------
--------------
-----0-0-0----

Generation = 3, Population = 63.
0----------0-0
-0-0------0---
0-0-0-0----0--
-000---0----0-
0120------0--0
000-1--0-0-0--
-002-00---0-0-
0-0000-----0-0
-0-00-0-----0-
--0--0-0---0--
------010-0---
------010-----
-----0---0----
----0-----0---

Generation = 4, Population = 25.
---0----------
0-0---0--0-0-0
--1-----------
0-------0-0---
--------------
--1----------0
0-----1-------
----1-0-------
-----------0--
-------1------
--0-----------
-------2--0---
-------0------
---0-------0--

Generation = 5, Population = 74.
0---0-0--0-0-0
--1--0-00-----
-020--0-0000-0
-00----0---0--
0-2-----0-0--0
00-0--0-----0-
-00-0020-----0
0--0--10---0--
----0-00--0-0-
--0---0-0--0--
-0-0------0---
--0---0300-0--
---0--010-00--
--0-0--0--0-0-

Generation = 6, Population = 69.
-000-0--------
0-2----1-00---
0--10---------
--1-----00010-
1-3---0-------
------1-0-00-0
0-1-1---0--0--
----1-210----0
0-0---1--0---0
----0011-00---
0---0--1---0--
---0-0-411-10-
--0--0---0----
-0-0-0-1-010-0

Generation = 7, Population = 86.
-111--00-00---
1030000--110--
102210-00--00-
-02-0-001---10
--40-010-0--00
----102-1-1---
----20---0-10-
---02------001
---0---0-1--01
--00--2---1--0
-0--10-----1--
0---01------10
---00-0-----00
0-0--1-----1--

Generation = 8, Population = 28.
--2----1------
----11-1--2---
---3----------
--3-1-------2-
---1-------0--
--1----0-----0
----3-----0---
--0----1--0---
-------------2
--1----------1
--------------
----1---------
---1---1------
----------1--0

Generation = 9, Population = 72.
-1-100020-0---
--3-22-201-0--
----10-0--0-0-
-0---0-------0
--4----0--0--0
-0--1-2-1-100-
---2-0---011-0
-0-02-2-0010-1
-------0--0-03
-0-0--------02
--0-1--------0
-----1-4------
--0---0-0-0--0
---0---1-0-10-

*** Life<FredkinCell> 15x15 ***

Generation = 0, Population = 8.
---------------
---------------
0----0-0-------
---------------
0--------------
---------0-----
-------------0-
---------------
--------------0
---------------
---------------
---------------
---------------
-------0-------
---------------

Generation = 1, Population = 25.
---------------
0----0-0-------
-0--0---0------
-----0-0-------
-0-------0-----
0-------0-0--0-
---------0--0-0
-------------00
-------------0-
--------------0
---------------
---------------
-------0-------
------0-0------
-------0-------

Generation = 2, Population = 26.
0----0-0-------
---------------
--00-0-0-0-----
---------0-----
--0--0-0-----0-
-------0---0---
0----------0--1
---------0-----
------------010
---------------
--------------0
-------0-------
---------------
-----0---0-----
---------------

Generation = 3, Population = 70.
-0--0---0------
0-00-----0-----
-011-----10----
---0----010--0-
-0-00--100-00-0
0-0--0010-01000
-0-----0-00100-
0-------0-0000-
---------0-01-1
------------00-
-------0-----0-
------0-0-----0
-----0-0-0-----
----0-0-0-0----
-----0---0-----

Generation = 4, Population = 30.
-----0-0-------
---------1-----
-1220----2-0-0-
---------------
--0-1---------1
-----1-------1-
0----0-1-1---1-
---------------
0---------0-2--
-------0-0-----
-------------1-
---------------
--------------0
---0---0---0---
---------------

Generation = 5, Population = 76.
----0---00-----
-00000-00200-0-
02--10--03----0
-0-0-----1-0-00
-0-------------
0-0--201-0--02-
-0--01----0-021
-----0-0-00-00-
-0-----0-----1-
0-----0-----00-
-------0-0--0-0
-------------00
---0---0---0-0-
--0-0-0-0-0-0-0
---0---0---0---

Generation = 6, Population = 65.
-00-1------0-0-
-------1---1---
13-2--0--4---01
-----0---2---1-
-1-0-001---00-1
---0---2---1---
---012---11-1-2
-----1-1-1---1-
--0--0-1000-2-1
-----0-0-0-0---
0---------001-1
---0-----0-0---
------------010
-0-----------0-
--------------0

Generation = 7, Population = 107.
011--0-0--01--0
0-000---02020-0
24--1---05000-2
0---01000300-20
0--1----000-10-
-00----300-20--
--0---0-0-21-2-
--00---20-0-0-0
-0-00--2--10-1-
0-0-01-101-10--
-0-0-0-0-01-2--
0-0-0---0-0100-
-0-0-----0--121
0-0----------10
-0-------------

Generation = 8, Population = 28.
-------------01
---------3-----
35----0-1----0-
---------------
1----0011------
-1-----4-----2-
-----2---1-----
---------------
------0-0------
-------2-------
0----1-1-------
---------------
0--------------
---------0-----
-------------00

Generation = 9, Population = 64.
---------0--012
00----0---0---0
462--0------0-2
-0---1-0-----2-
----11-220---0-
--0----5-0--0-0
-0--1-010-2--2-
-----10-01-----
-----0-2-0-----
0----1-3-------
-0--0--20------
-----0-0-------
-0-------0-----
0-------0-0--10
---------0--011

*** Life<FredkinCell> 16x16 ***

Generation = 0, Population = 8.
----------------
----------------
------0---------
----------------
----------------
----------------
---------------0
------0-----0---
----------------
----0-----------
----------------
0--------------0
----------------
--------------0-
----------------
----------------

Generation = 1, Population = 29.
----------------
------0---------
-----0-0--------
------0---------
----------------
---------------0
------0-----0-0-
-----0-0---0-0-0
----0-0-----0---
---0-0----------
0---0----------0
-0------------0-
0-------------00
-------------0-0
--------------0-
----------------

Generation = 2, Population = 27.
------0---------
----------------
----0---0-------
----------------
------0--------0
------0-----0---
-------------0-0
--------0-0---0-
---------------0
0-0---------0--0
----------------
0-0-0--------010
----------------
0-----------0--1
----------------
--------------0-

Generation = 3, Population = 63.
-----0-0--------
----0-0-0-------
---0-0-0-0------
----0-0-0------0
-----010----0-0-
-----010---0----
------0-0-0---0-
-------0---0---0
0-0-----0-0-0--1
---0-------0-001
----0-------000-
-----0------01-1
--0-0-------000-
-0---------0-00-
0-----------0-00
-------------0-0

Generation = 4, Population = 31.
------0---------
----------------
--0-------0----0
------1-----0---
----------------
----0-----------
------1----0-0--
0-0-----0-0----1
----------------
0-------0-----1-
---------------0
--0-0-0----012--
----------------
----0-----0---1-
----------------
0-------------01

Generation = 5, Population = 85.
-----0-0--------
--0---0---0----0
-0-0--0--0-00-0-
--0--0-0--00-0-0
----0-1-----0---
---0-01----0-0--
0-0-00-00-----00
---0--00-----00-
--0-------0---01
-0-----0-0---0--
0-0-0-0-0--000--
-0-----0--01-311
--0---0---00000-
---0-0---0-0-0-1
0---0-----0----0
-0-----------012

Generation = 6, Population = 77.
--0-0-0-0-0----0
------1-----0---
0---0-1-0---10-0
--------0-1---0-
--0---2---00-0-0
0-------0-0-0--0
----1---10-0-0-1
0-0---1---0-0111
------0----0-0-2
--0-0---0--0-1-1
-------------1-0
--0-0-0--0-2-422
---------------0
0---0---0--10112
----------------
--0-0-----0-01--

Generation = 7, Population = 119.
-0----1----00-0-
0-0--0-0--001---
-0-0--2-1000-10-
0-0-0--01-2-00-0
00-0-0-0-0110-01
-00-0-10101--00-
--00-010-1---10-
---000200---1--2
0---00100--10-0-
-0---000-001----
------0-00--0-0-
-0-----00------3
0-0---0-00--0-0-
-0-0-0-0-002----
0-0-----0-00--00
-0---0---0--121-

Generation = 8, Population = 30.
---------------0
----0-----------
0-------------1-
1--------------1
------2---------
--------------1-
-------1-2------
0---1-------2-1-
----------------
--0---------0---
------1---------
------0110----2-
----------------
0-----0---1----2
---------------1
----0-0-----2---

Generation = 9, Population = 82.
----0---------0-
0--0-0--------00
10--0--------1--
20----1---------
0----0-0------01
------10-0---0-0
0---1-1---0-0---
-0-0-0-0-0-0---2
0-0-0---------0-
-0-0--0----1-1--
--0--02-00--0-0-
-----0---10--4-3
0------0000---00
-0---0-0-0-2--13
0---0-----0-0-02
---0---0---0-2-2

*** Life<FredkinCell> 17x17 ***

Generation = 0, Population = 8.
-0---------------
------0----------
-----------------
---------0-------
-----------------
--0------------0-
-----------------
-----------------
-0---------------
-----------------
-----------------
-----------------
----0------------
-----------------
-----------------
------------0----
-----------------

Generation = 1, Population = 31.
0-0---0----------
-0---0-0---------
------0--0-------
--------0-0------
--0------0-----0-
-0-0----------0-0
--0------------0-
-0---------------
0-0--------------
-0---------------
-----------------
----0------------
---0-0-----------
----0------------
------------0----
-----------0-0---
------------0----

Generation = 2, Population = 27.
-0-0-------------
----0---00-------
-0---------------
--0---00---0---0-
-----------------
0---0----0---0---
-0---------------
--0------------0-
---0-------------
-----------------
-0--0------------
-----------------
--0---0----------
------------0----
----0------------
----------0---0--
-----------------

Generation = 3, Population = 81.
0-------00-------
-----0-0110------
0---0-0000-0---0-
---0-0110-0-0-0-0
0-0-0-00-0-0-0-0-
---0-0--0-0-0-0--
----0----0---0-0-
--------------0-0
----0----------0-
-0-00------------
0-00-0-----------
-00-0-0----------
-0-0-0-0----0----
--0-0-0----0-0---
---0-0----0-0-0--
----0----0-0-0-0-
----------0---0--

Generation = 4, Population = 25.
-0---0-----------
------0---1----0-
-0---------------
-----1-------0---
-----------------
0----------0---0-
-----------------
---------0-------
-0--10-----------
--0------------0-
-----------------
------------0----
01------0--------
-----------------
-----------------
--------0---0---0
----0------------

Generation = 5, Population = 84.
0-0-0-----0----0-
-------0-1-0--0-0
0-0--00---0--0-0-
-0--0-1-----0-0--
0----0-----0-0-0-
-0--------0-0-0-0
0--------0-0---0-
-0--00--0-0------
0--0210--0-----0-
---000--------0-0
--0---------0--0-
00------0--0-0---
120----0-0--0----
00------0--------
--------0---0---0
----0--0-0-0-0-0-
---0-0--0---0---0

Generation = 6, Population = 57.
-----0-0---------
----00------0----
-0-0-1-----------
0--0--21--0----0-
-0---------------
0-0--0-------0---
-0--00-----------
0-0----0---------
--0---10---------
0---1----0--00---
0---00--0--------
--0-------0---00-
2-10--0---0------
--------1-------0
00--0---1--------
------0---------0
--0-0-0----------

Generation = 7, Population = 144.
-----1--0---0----
-0--1100---0-0---
---102-0--0-0--0-
-0010-3200-0--0-0
0--0-000--0--0-0-
---0-10-----0-0--
0-001-00-----0---
-01000-10--------
-010212-00--00---
10002-00--00110--
1000-100--0-0000-
-01-000-0010-0110
---100-00010--000
-0000-00200----0-
1100-00020-------
000--0100------0-
-0----10--------0

Generation = 8, Population = 31.
-0---2---0-------
0-0-----------00-
-----------------
-1-------1-------
----0------------
----0-10--00-----
-0---------------
------------0----
-1---2---1-------
------1----------
-----------------
---------1--0----
--1---------0----
--1------------1-
----0------------
----0---------0--
-1---------------

Generation = 9, Population = 105.
----0-0-0-0---00-
-0-0-1---1---0110
000------0----00-
0-0-0---0-0------
-0-01000-000-----
-0-01-2100110----
0-0-1-00--000----
-----0---0-0-0---
0-1-2---0-0-0----
-0-----0-0-------
------0--0--0----
--1-----0-1010---
-221-----0-010-0-
-0200-------0-0-0
--0010--------00-
-0-010-------0-0-
0-0-0---------0--

*** Life<FredkinCell> 18x18 ***

Generation = 0, Population = 8.
0-----------------
----------0-------
--0---------------
----------0-------
------------------
------------------
0-----------------
------------------
----------------0-
------------------
------------------
------------------
------------------
-----------0------
------------------
------------------
------------------
---0--------------

Generation = 1, Population = 26.
-0--------0-------
0-0------0-0------
-0-0--------------
--0------0-0------
----------0-------
0-----------------
-0----------------
0---------------0-
---------------0-0
----------------0-
------------------
------------------
-----------0------
----------0-0-----
-----------0------
------------------
---0--------------
--0-0-------------

Generation = 2, Population = 24.
------------------
--------0-0-0-----
----0-------------
--------0-0-0-----
0-0---------------
----------0-------
0-0-------------0-
------------------
0-------------0---
------------------
----------------0-
-----------0------
------------------
---------0---0----
------------------
---0-------0------
------------------
-0-0-0------------

Generation = 3, Population = 58.
--------0-0-0-----
----0--0-----0----
---0-0------------
0-0-0--0-----0----
---0----0---0-----
---------0-0----0-
---0------0----0-0
--0-----------0-0-
-0-----------0-0--
0-------------0-0-
-----------0---0-0
----------0-0---0-
---------0-0-0----
--------0-0-0-0---
---0-----0-0-0----
--0-0-----0-0-----
-0---0-----0------
0-----0-----------

Generation = 4, Population = 24.
----0-------------
------0---0---0---
0-----0-----------
------0-------0---
0---------------0-
----------0-------
----0-------------
----------0-------
------------0---0-
-----------0------
0-----------------
------------------
----------------0-
---0---0-------0--
------------------
---0--------------
------------------
-------0---0------

Generation = 5, Population = 72.
---0-00---0---0---
0---0010-0-0-0-0--
-0---0-0--0-------
-----010-----0-00-
-0----0---0---00-0
0---0----0-0----0-
---0-0------------
----0----0-00---0-
----------0--0-0-0
0---------0-----0-
-0---------0------
0---------------0-
---0---0---------0
--0-0-0-0-----0---
-------0-------0--
--0-0-------------
---0---0---0------
------0-0-0-0-----

Generation = 6, Population = 64.
0-0-0-------------
----1-2-------0-0-
--0-----0-------0-
----0-2-0---0-0-1-
--0-0-1-------1---
------0-0-0-0-0---
0-0---0-----0-----
--------0-011-----
0---0-----1-------
---------01--0----
0-0---------0-----
---0---0---0---0--
0-------------0---
-0-0-----0---0---0
----------------0-
-0-0-0-----0---0--
------------------
---0-0-0---0-0----

Generation = 7, Population = 100.
----100-------0-0-
0--02--00----0--10
-0-0---010--0--0-0
---01-3-10-0--1-20
-0--1--0--0--0-00-
0---00------1-10--
---0-010-----00---
--0-0-00-----0----
-0-0-0--0---00----
--0-0---01-0--0---
-------0-00----0--
----0-0-0-0-----0-
-------0-0-0-----0
----0---0-0-0-----
-----0---0-0-0----
0-----0---0-0-0---
-0-----0-----0-0--
--0-----0-0---0---

Generation = 8, Population = 30.
0-----1-0-------1-
--0---------------
----0-----0-------
--0-------0-------
--0---------------
----------00------
0-----2-0---------
------------------
0-------1---1-----
---0------1-------
--0---------------
---0------1-------
------------------
---0-------------0
0-----------------
-----------0------
----------------0-
---0-------0------

Generation = 9, Population = 85.
-00--0---0-----0-0
00-02-2-0-0-----1-
---0-0---010------
-0101----010------
-010-------0------
0-0---0-00111-----
-0---0---000------
------0-----1-----
-0-0---0-010-0----
0---0---01-00-----
-0-0--------------
----0----0-0------
----------0------0
0-0-0-----------0-
-0-0-------0-----0
0---------0-0---0-
---0-----------0-0
--0-0-----0-0---0-

*** Life<FredkinCell> 19x19 ***

Generation = 0, Population = 8.
-----------------0-
-------------------
-----------------0-
-----0-------------
-------------------
-------------------
-------------------
-------------------
-------------------
-------------------
---------------0---
-------------------
-------------------
-------------------
-------------------
-------------------
-------------------
-----------------0-
0-----0---0--------

Generation = 1, Population = 25.
----------------0-0
-------------------
-----0----------0-0
----0-0----------0-
-----0-------------
-------------------
-------------------
-------------------
-------------------
---------------0---
--------------0-0--
---------------0---
-------------------
-------------------
-------------------
-------------------
-----------------0-
0-----0---0-----0-0
-0---0-0-0-0-----0-

Generation = 2, Population = 22.
---------------0---
-----0-------------
---------------0-0-
---0---0-----------
-----------------0-
-----0-------------
-------------------
-------------------
---------------0---
-------------------
-------------0---0-
-------------------
---------------0---
-------------------
-------------------
-----------------0-
0-----0---0--------
---------------0---
--0-0-0---0-0------

Generation = 3, Population = 65.
-----0--------0-0--
----0-0----------0-
---0-0-0------0---0
--0-0-0-0------0---
---0-0-0--------0-0
----0-0----------0-
-----0-------------
---------------0---
--------------0-0--
-------------0-0-0-
------------0-0-0-0
-------------0-0-0-
--------------0-0--
---------------0---
-----------------0-
0-----0---0-----0-0
-0---0-0-0-0---0-0-
0-0-0-------0-0-0--
-0-----0-0---0-0---

Generation = 4, Population = 22.
-------------0-----
-------------------
-------------0-----
-0-------0---------
-----------------0-
-------------------
---------------0-0-
-----0-------------
-------------------
-------------------
-----------0-------
-------------------
-------------------
-----------------0-
0-----0---0----0---
-------------------
0-----0---0--------
-------------0-----
----0-0---0---0----

Generation = 5, Population = 59.
------------0-0----
-------------------
-0-------0--0-0----
0-0-----0-0--0---0-
-0-------0------0-0
---------------0---
-----0--------0---0
----0-0--------0-0-
-----0-------------
-----------0-------
----------0-0------
-----------0-------
-----------------0-
0-----0---0----00-0
-0---0-0-0-0--0-00-
---------------0---
-0---0-0-0-0-0-----
0---0-------0------
---0---0-0-0---0---

Generation = 6, Population = 53.
-----------0---0---
-0-------0---------
-----------0-0-0-0-
---0---0---0-------
-------------0---0-
-0---0---0---------
-------------0-0---
---0---0-----------
-----------0---0-0-
-----0-------------
---------0---0-----
-----------------0-
0-----0---00---0---
---------------1---
--0-0-0---0-00---1-
-------------0---0-
--0---------0-00---
-----------0---0---
0-0---0-------0-0--

Generation = 7, Population = 145.
-0-------00-0-0-0--
0-0-----0-0--0---0-
-0-0---0-001------0
--0-0-0-0-010--0---
-0-0-0-0-0-00-0-0-0
0-0-0-0-0-0----0-0-
-0-0-0-0-0--0---0--
--0-0-0-0--0-0---0-
---0-0-0--0-0-0---0
----0-0--0-0-0-0-0-
-----0--0-0-0-0--0-
0-----0--000-0-00-0
-0---0-0-0110-0100-
0-0-0------0000200-
-0-----0-0--1-00020
----0-0---0-01-0010
-0-0---------01-00-
0-----0---0---01---
---0-0-0---0-0-0-0-

Generation = 8, Population = 32.
---------1---0-----
-------------------
---------1---0-0---
-0---0-------0-----
-----------------0-
-------------------
-----------------0-
-------------------
-----------------0-
-----------------1-
0-----00--1----0-1-
-----0-------------
0-----0---2--------
-----------------1-
-------------------
-------------------
-------------------
---------0---0-----
0-0---0-0-----01--0

Generation = 9, Population = 79.
--------0-0-0-0----
---------------0---
-0---0--0-0-01--0--
0-0-0-0--0--0100-0-
-0---0-------0--0-0
-------------------
----------------0-0
-------------------
----------------010
0-----00--0----00-0
-0----1100-0--0--20
----0-00-------0-0-
-0-----0-0-1-----0-
0-----0---0-----0-0
-----------------2-
-------------------
---------0---0-----
0-0---0---0-0--1--0
---0-0--------1200-

*** Life<FredkinCell> 50x50 ***

Generation = 0, Population = 49.
--------------------------------------------------
-----0--------------------------------------------
--------------------------------------------------
--------------0-----------------------------------
---------------0--------------------0-------------
-----------------------------------------0--------
-------------0-----0------------------------------
------------------------------------0--0----------
-------------------------------0------------------
---------------------------0---0------------------
--------------------------------------------------
--------------------------------------------------
--------------------------------------------------
-----------0-----------------------------0--------
-----------0--------0----------------------0------
-------------------0-----------------------0------
---------------------------0----------------------
--0-------------0---------------------------------
-----------------------0--------------------------
----------------------0---------------------------
--------------------------------------------------
------------------0-------------------------------
0-------------------------------------------------
--------------------------------------------------
------------------------0----0----------------00--
------------0--------------------------0----------
--------------------------------------------------
------------------0----0--------------------------
-0-----0------------------------------------------
--------------------------------------------------
--------------------------------------------------
--------------------------------------------------
-----------------------------------0--------------
0-------------------------------------------------
-0-----------------------------------------0------
--------------------------------------------------
-----------------------------0--------------------
-------0------------------------------------------
--------------------------------0---------0-------
------------------------------------0-------------
--------------------------------------------------
-------0-------------------0----------------------
--------------------------------------------------
---------------------------0----------------------
--------------------------------------------------
--------------------------------------------------
-----------------------------0--------------------
--------------------------------------------------
--------------------------------------------------
--------------------------------------------------

Generation = 10, Population = 578.
-----------0-2---0-0-0-------0-2-0--1-------------
---0--0----1--11------0--0-------0-----0---0------
-------0---------0-0---0----0--1--0---0-----0-----
-0--01--1--001--0---0---0--0---2-0---------------0
---------0-----0----0----001--2-----0-----01--0---
---0--12-0---00----0--0-----1------0---0----1----0
---0--------------00--10-1-100---------0-1--00----
--0--------0----00-1-1-3--0--11----3---1--3---1---
-----1--------------1--5---2-0-------1---0-2------
0--11--0---------113--1--0--0--2-1-------0-00--0--
---------------0-----2-2-0-0--------1--1----------
--00-0------0-----0-0--10--------0-1---0-0-------0
0--1--------0----0-----1----0-----01--0----------1
-0---0-----1--2-02--100----2---1----3------0---0--
011--1----01--2----1----1-0--100-1-301--------0--2
---10---001-01----01----11-0-1-2--1---12-------2--
1--0--------10-2-0---00---0110-----2-0------01--1-
--1-----2--12-----2---02-111--1--0-100-1-0-------0
-0-----0-----1---0-1----2------2-0-0----------00--
----0---0--2--------00--30000--00------0-0--------
---0-01-10-2---0----0----------0-----------1------
--------11--100---11---11---0-0--------0----------
-1--1-21010--0--0-0--10----1----0--0-000-1----2---
0-1-0-----01----10--02----0----0-------------1-0--
-1----0-0--0--0---110----1---01--1130--221-24--12-
----1-0---0---01---3------0--0-1-2---------2-2---0
---1-0---0-----11--------0-0-0--0--2-000-0----2---
1-0-0--00---00--112---------03-1-0-------------0--
00-0-------0-0---0-----0---1---10---------00------
-----1---10----10---0-0---0----0----0-------------
0-0--0---0-----0--------0--0--0---0-----0--10-01--
------0-0---0-----0--------1------0---01----------
0----0---1------------0--112-0-11--0-----11-1---1-
----105-31----0---0----0-0-3-1------00---0--------
-0-0---1---0---------0--0--0-1---2---------0--0--0
------010---0--00---01-----2-0---------0----------
---0---------------0---10----0----0----10--------0
-------------0---00----0---20---------------0-----
-0-----0-------------00---10---00--2102---0-------
0------------------0------0---1----1------1---0---
-1----------------------0----2---01--0--0--1------
1-0----------0-----0-0------0----1-3-0------0-----
---0-------------------------1-----0-----0---0----
0------0-------0-0-0-0-----------0-1-0------------
-0-------------------0-----0-1-01----0----00------
-----0---0---------0---------------00-------------
-------------------0---1---1-012--00---00---0-----
----------------------------------0---0-----------
---------------------0-------0--0----0----0-------
-----0-0-0--------------------------0-------------

Generation = 20, Population = 565.
-------1-------00---0---0--------------1-------00-
0-0--111-4-604-3020-03-----0---2-----1---2-1-1----
10-0-------2-------11--------0-6---1-------1------
--1-2-------------2-4--0----------1-1--1-----1--1-
-----------2-1-01--12--------3-----0-------40-0-1-
--3------4--0-100-----33---4-1-3---1-------2------
-30-02-1-------3-------1-2-3---7-2-42--0----------
0-------------1-2-15--262--2--4-2--4----34-31---11
-4-----1-2-5---2-2-3---7-1--4--5-1--------2-----3-
---5-1-13--3---63-46-----------4---3-2-5-----1-1-2
50--0------5-------1---------2-30--32---12--------
---1------3---2---343-23-----------41--5-2---0--1-
-2-2-4-------1-6---2----0----3-----3-------3--1---
-2---6-4-5-5---3--3--1-2-----2-41--------2-0------
24------3------5----------------4---22-41--1-7----
------23----------3------------------255-----4----
-3---------------------------1-6----5----------4--
-110-2-233----1-0-----1--2-13-----4-2----0-1------
-3--23-----1-22-2--2------------2--23--0-122---1--
--11--------------3--------1------52---3-20-------
--------4----1-----1-----4----2-32-2-21----3-4----
0-41-161---45-----2----2----2-124----40-----------
-2-----4-22-2--0-36-2--5----1-------0-11---4--3---
--1---10------1------------1------22--11---6------
----2--2-2--35-1-------1--5--1---5--------3-6----5
1-00--44-----------5----2-------1-22-----1-------3
-----------2-00-3--30--------1--2---------34------
3--1--2----0-------2---3------16---4--12----------
---0----11-2-----4---2--------2------31-2----3---1
--------------31-------2----1--4-----2------------
-------5-----1-330-----631-2-----0-----2-3-----2--
--0----3-------5------43---5------1------------3--
-------2-------0-2-----1-------3---------------2--
2-----63--32-----------1-----------------3--------
4--------2-1-0--10-112-4--11---3-----0----32-3--1-
------------------202-----3----------------0----1-
---------1-------3-2----5--4-2-----------4----36--
--30---1----2------0--31---------------1---1------
--0-0-------02---2--1-12-4-1--2--2----4--2--6-1-1-
-------0---2----1-3---342--1---------------02---1-
-2-----2-----1------3----0--3----0--------11-1---0
---0----1--4---11-11-------2---5---52--2---0---0--
1------------0--1---------0--2--1------------2--0-
---1-------2--11---12-00---1---3-------2-------10-
-1-0-2-----0------------2----------2----------11--
1------1---21----------2---3----2------22--2------
---------1-------0----------1-------1-1--3----1--0
0--0---1----------0----0---3---------------1------
-1-----1-----------------1---1-2-2-1---0----------
--0-0--0----------------------------0-------------

Generation = 30, Population = 1242.
-3-23515-----9-2-226320-2-145-2--------303142-2---
--45--5-15----5-2-22--5-----441---1--2--0-0--2-5-4
--10-2--13-5---624-65-23221230--7--2-12--31-12--3-
-2---9112-042-3--14--2--41021-36---322315-4222----
5--------323-22--13--3532-43-63+-31134-682----02--
--8246-735---8-3---50--742-846--2--151-58-1+4----2
5--38+-2---1-1--65-4+1--15--7-----28734----5---1-2
1-14334-1--3-246-4---2-7505-128--4--1678--75--51-2
-4-7--15-419-----21---2+--5----8----7-2---3--2-3-2
-43----5--5444-785-+8756---62-3-5-486-1-5-024--213
-1---4------2--4-2--2---1----5---5-6--------62-3-4
--34--41--5-6142-26-778--4-7--5-----4266--4+1-2--8
-4-6--1--3-7-418---6--38---4---6-2-8113----9--25-4
2-5----5-5--0-+56-75354244-7-44------2-42--2231---
---25--555------6+-----3-----8-4-526543432---+--03
--4+433----5--3+423-516-333-13267--94-----25-8-758
--36--06---6-3----11-215---7---9343+676-422----63-
-6-6-45-3-------307-42494--2--474-----07-2-8-5---1
97--6--3-4---6-3---61---6----11-22256-052-6-1-1-0-
-233---24-3---4--25-1-78-1--13-5-3-3-3-54626---4--
3-5--8-5-3-6---3---1--52--3-2-663-6-151-3-3--5-4--
0---35--765----244-43----893-3-34------4450-124---
3266-7-4-4-5-5-1---1----614---1-4-6-1-6-3--8-54523
302----1---5-0-2-29503--2--1-132--57--4---4+--3-0-
43--69-2-4-5-------9-5--3--8655---1-686--4-788473-
3-44----3327---6-139-0-5----34--6---52--1-2-1---1-
--24---4-3---25--2-7---91-1154-44--47--8-577-53---
3---5487551-34--35-8-4-44332--2---5---331243--3-3-
-----3-----52--635---46------844--4--6-025-60-2---
--5-17--5-39--76---5-2252-2-2---4---3-222--31-1---
--2-------4--467--132--+--3--4--4----03--52-5---5-
--21--6-----15---4--247-3-485-2---4--135-22334----
5---35--2---31--132-36--43-549--4--445-435----5---
616-8--7-------3--16543-545-420-3--044122-14-6-7--
7-2----3--03-0233-23---8-23--4-73--2-23----6------
--3-2----2--1---22714-6-4-665--2-131013--2---2-3-1
132---------311436---1-8-4-6-546451--------5-17---
32----4---35--2-343-3-4-3-0--5-4--142--4--14---0--
03-12--4----0-3--5-3-4-6-84-36444456-064-7--+5-34-
0--1--------4123233-1-668----4--52-8-2-17---23-4--
1-22--2--2---------5-5-35--7--2733--7---0234--31-6
--1-454-----231-6-44111--3-3-31922-7--14-21--20--5
321112-00--21-0------22--5---3-7--3--23-5-4325----
--15--340-14-04-1--744-3-2-43534-51-32-33---24-414
31031-03-1--020-4---02-4---1-20----51-013-2-13---1
212012----23---3-15-33---21532-35-242118-132--1--2
1-0-230--111--320--3---331-337--32--225-542--3-2-4
-00211---22-3301-325-1422-14-12-3242112443-22-----
--0-0--1----02----1--52----4--1----6--2-1--0-----2
---2--3-1--1-142-1-02132-0--2-01002151230202-0---0

Generation = 40, Population = 575.
4----------8-----3------2--7-5--4----6----34-636-4
---7--7-16--4----32----------6---5---7-3-3---4----
----3------------------------0--+--7-----------4-1
--------4-0----33-5---268-04---6------4-----------
--1---------3--------3--6------------9-78--7-3----
32+-9----6-----526--1----2-+---8---5-3-----+---2--
---4-----613----7----4--4--5-+--8-4+--4677---6396-
--3---------4--7---+-5--83--3--------+--8--65----3
---9--2-1--+--------4--------3-----9-----6-7-4----
4--+------7---58---+-----26-56---45+-7---5---7--15
-------------------------------------------6-3----
--------2-----6-2-+8---7------7----7--------------
----4------------------------8-85--------------7--
-6--4--7155+-----8-+----4--+---+-------5---------4
--+5--------------5--5--9--6--46-8---6--5-2-3+53--
----6--4---8-----3---------6-7--72-+---8-2-8-----9
35----1----+8639-----31-----2----4-+-+-9----3-----
------5------------65-6---+--3---6--54--2-4------4
------------------------------------86---------6--
2-----------6-4-1-----8---------------3------52---
-----------------------------4---6-----8----------
--8-48---7------5---5--3---5-------48--7---5------
----------96-------1-77995-9-8--+----3757-5+----4-
-------3-----------5-----3--2--7-----------+2--9-4
6-----65-7---+------5+87---9--87-9--7----7-9---86-
-----7----39--67---+-2----5-4-2-7+63+3---3-------+
-3---------7-----------+-3--79---3---------756----
4---7-+-8-----6----93-4------------8-2--------35--
-6-------------------6---6---------749-6-5-----6--
-3----------44---------6---73--4-------4-6--3-----
2---------6--4-----4----4-4--5627-4-6---5---------
----4----------6----------------6-----------------
---4--33---9-223---3--5--5-----7-----7-6-5--3-----
-2-4---8-----2--------5-6----2-2------253---3-----
---4-7---5-----4-4-5-8---4-------7-216---3-------2
---5----4-----4-------6----7-----------6-4---3----
-----7-5-4--------------8--94--7-+-----7---+0-8---
-----6-----6---1-----------------2--4----3-----1-1
448--24-1-----------76-----36---7-8----7--6++-----
--4----3----5-----63----8---1--5--------9--33--5--
---5-6---4-----4-------4---+-9---5-----6----------
--12-9----57----6--8--22--2---3+52-7---8-------4-6
-2---------3-------------8---3---3---------7------
3-2+3------6--6-3---8-4--------5-6-------------7-4
-2-------------45----4-----1----7--5521------56---
---5--------------6----6---------3-----+-2-4-----3
-5-2-71-041325------2-----3-6--6---24--6---9---8-6
----1-----4---------------26----4--43--5-3-------2
-3-----3-----------0----5----1-7---6----------43--
----0---3-1-1-4---1-----1--1--02------------------

Generation = 50, Population = 1008.
-3-4-8--3-3-3-----4-5-12-------+-------+---6-7885-
--5-4--527---6---3-5-++2-857-6----3-4-35-7-------8
---5---------6--6----------4---------9-+-6---7-6-1
--358-5--62-4-----75+7--9--94478--------+---46-5--
82-8-------844345-----7---7-----8-----3-+56+--487-
-2+5-9--89----4-----2-7---1------639--2--+----53--
8-78-+--------4--855+-5--7--9-3-+79-+8++-9-9---++7
--49-79636--5-77--5+---8-4-+69+--------+-8--84----
55-------7-+-51-+-49502-7----95+--++9667-9-+-+65-3
6----278-3--98--+6+++----6-9-8-8----+75--90--7---7
-38--------+-3-462-4--652--2--64+8----27--489-1---
--666--44-69+4----+++--+-8-+----5-88-6-866---9--3-
---------4-8-7-------5---12+-+--7--+-----66+---7--
-8-+-+48--8+38----+-7--4-7---8+----+-9---5----1---
--+-7-78-7-+-9-+---5---+++--6-----3+9-9-9--67+-5--
-5---5-6-5---------------7---9-89--------4--0-----
-74-5-2----------3---6---98-------4+++7--72-------
89---88--++-------+-+--+65-7-76--889---+-+5--9----
-+-6-----6-9-7-----+-1-7---6---866-6-7-8---5---6--
5--445-496-88-53----54++-42-----5----6--58-----61-
4662--6---4---4693-2---7565+-6++7---7-4+-96--7--6-
----899---99----877-65--7-+-----------5--7-+-35-14
4697786+-5---8+6++93-+-++-7+---++---3--7----985--6
-----4-7----42-8--+--74-----------8----75----78---
85-3+-887+----67+1---+---5-+9++--+---+9-+--+---+-9
--466--9-6--36-9----876--76-99--++-6+62---6--+-75-
---8-75-4---------2----+4---7+6--7-5--8+5----9-9-2
-56-+7---64---6-4--+-7-+7-7--77-3-8--3--3-------9-
5+---5---619----4-----+--9---+-------9-8-+5-25-+--
--672--6-3-+768--469-5-----+6-6--------9-----57--6
4-4----+5---4-+--7-8476+-8-89--3-----1-69--96728--
-----2-------------4-5+8-3--8-----7--------6--3537
8--+-+-5-62+----563-977---77-------------7+--3----
--+-+---++-6-44---389-9-77+-----6---7--+---64-2-25
-6-5---8-+-7-----------+-------+---------6-+---753
----4-54-2+3----4-+6848954-9---51-4----8-7--365-6-
5---4--+-42---3-4917--3---5---6+8+-9---+--5---+-8-
7-5--7--88-6-----6--4-5----6--3--5--43-+---9-521--
+----4-825------6-7-97+----5--9+9-+----8+-------76
--97----33--6186--7--8---2---6-6-----686-5--6-----
4----+--34373-5--3--6-3895-+--4-8--8+9-+-6-87-4---
45478----6--45----8+5--6-4--4+--5----6---42---15-9
------1-3-----1----4-64-1-----5--58--5--6---692---
438----7-39--57+-36+9----438--7-792--4-+----5--7--
6---571--5-3--0-57-4-4-+-5555--------454+--8-6-5--
-74+-71----9+-3---6+---8----5638---5-6---3-+-5----
7+-7-+64---5-89-4476---773--7-----654466---+66-8--
13-7--5--3--4-6---6--2---3-+-32--6--6-48-4-5------
24--33---01---0-4--3---5--18----3419--3--15-------
--0-256-4-1-------1-8--4---26-3-3-548-672---------

Generation = 60, Population = 1186.
7-7-+88----+-+8--6---6----6+-+6+--496--+2--7-----+
6-5-7-+76++-7976467-9-+--+-9-7--6+-4-+----7-3-2+1-
9-3-3-4--54--+5--9-8--36---5-65--5-+-+8+5975---+--
-----9--++--+--75-+-+--+--69---+-1+-----+3--8-57--
+45----43+9---85-356-+----+---9---37++-+-8--78-+--
+-+8++8++-+-++7++-97---+7-4+++-+79-+--36++-----567
+++---+-49-8-+-6---8-----+7---5+--9---++++7-7+5+--
79--8+-64+-8-3+-----8-+99--+-+-+---+9-+-+-89+6---5
8+-+994---6+473+--7+-1-+-+85-+8-++-+++9-8--+-+-++7
99+-6-7-678-+++-----+++-6-----5---++-+-+----+-4--+
-79-+--7---+4-5--2---+-9--4---9--+-+7-39--5-+53+78
-4+9-5-8-8++-8---4++---+9+++5--++--+6-+-6-5--+-45+
--8-8-9-353+--5+85-+-------+6+-++-6+7--+198+7--96-
7+++9-687-9----+8--++----+++-+++7-6+------49-9---4
9-++-+-++++-----8+9--68----+-+--6-6+-+--9-6-------
-8-+8+-+66--389--6-9--88---+--9+--6-+----8--4-6+9+
9+7+--5++-6-+7-+----8--+--+-3---9--++-9-+--+---89-
+-6-++9+-+--+9-75--+-6----+88+7--+--9+-+-+--5+---9
---+9----+--5-+-8-7+6-7--+--8----8-++-6--8---+-74-
956-7----+--+2-548-8-5-+974+6-8---+-+9--8---8+--6-
5992++8+-8-+6--++--6--+-------+-8---8--+-+--8----6
1-+--+-3+---+3------9---9+-+----9-5-----6-3--4672-
--+9----97--9-+7+++-+-----7+-+-++--7-+---8-++9--+-
---5-8883--9-3-+-3-+---+486+8+6--5----+-67--7-8+4-
+8+-+--97+-----9+-7+------++------4--++-+---------
-2-789--78-+-8-+554-+--+6-+-+--+-+--+9-+--8--+3-++
+--+-86+553-3---8---98++5--6--9--+--95--6+-++---46
6--8-----887---78--+896+-------+58+-+6---8-+5---+4
7---7+-----+-+79----9-+-------++--6----+---------8
-76-8+-----+979++4--87-9-6-+769-+87--67----+9----8
-++--79+--+76+-++--+6--+8+8-++---768+5-7---+9+--6-
--895--+2---786+7--++----------79--23---4---7-474-
-8-------+3+-----64-----9-7--+4+---9-+-9+------+--
85-8+-+++++-+---77------+--7--3-79--8-8+77----3--8
--8---6--+---5+-48-76---79--5-7+-+--2-9-+9-----+5-
9---8-8+---9----87+--6+-+--+8----25635-+--7-4---7-
8---9+5+---+-248-----74--+7-+------------+--3-----
7-+72+87--9-+295-9--5----6596-45-86+64--7------4-5
+----8---94+-8---++-+---8+-9-+---+++-4--+-+-+----+
3-+--5----4+----58-85++-+5+-99+9+8--8+-++8-6---66-
9--71---964+---+-34+-+8--9-----+++-+---+-----6-28-
4-----7-+9+--95-8-++--6+8-3--++-9-5+-8-+---86-36--
-6--47-6-6---628---68-852----6++-7---567----7+-5--
64+--7+--4-9788------9-94-6-6-9--+-+94--8+4-++-+-6
8-3-9--63---663+-+64-6-+---+---+----6+-6--------6-
6-7+8--3--4-+-----8+6--+--6-794--9-+-75--74--6--2-
---8-+--46-8----6-+----+---++----7878-------7---59
--9-37762698-6-4-89--4+----+----4-6+-46-5---5-4---
4-6-5-5-4--87-3-63-----+-----------+---+36-+3+-9--
6--64-827299-463--1---+-53-3---7--779198--5+-8-314

Generation = 70, Population = 1130.
--95-9-----------7-+-9-578-+-+7++-6--+-+4+9-9-+-8-
8-6+8+-----+------+8---6-----+5+----------9-5---4+
+-4-68---------8-+-8--4--9456--++69+9+++7-+-3-7--6
-5--+-7+-----+--87+-+9---+---8--91-----++-9----8--
+-5-6-48-+---7-6-7--8+--+---7+9---3--+--+-+-8-----
-------+-+--+--++-+-6--+---+-+3+--5--637-+--7+----
+++-+--8-+-----8---+--+68+9+--7-+8---+-+--8--+6+-+
-+--+++--+5--6----++-++----++---+---9+-+-+-+--+--8
--++-----+-+----+7-+-54++-875+-----+---+--5-7+--+-
--+-8--++------+--+-++--69++--6----+---+-+-----67+
-++--------+--8+-5666+-+897-+8-+---+----778++65--+
86+---+---+--8-+4----+-+++-+6+---8+--7-+7----+65-+
9++-+------+78-++56+899--+3+--8+---+-+4+3++++-+--+
7-++----+--+5+--++-+----9+++-+-++--+++6-5-8+4+--28
+8++9-+--++---++-+++8-9++---++-9---+++-++87-+++-8-
5---9+-+-99--+-++----58---9+--++--7++---8--+--8+--
9+9+7+-+----++--+3---94+--++-+---8--++-+-+6-4-+8+-
+-+--++---++-+688-+-+---67+--+-++-+-+-9-5--+-+---+
+-6+-+-8++-+6-+-+--+--7-7----+--++6+++-+--+-8-6--+
+7788--6-+7++6--5++-96++--5+-8++-9+-+-6--+---+-68+
7-----8+---+---+--4-83-77-----+-9----+6-6---+--+-6
48+4-++4--++-4++---+++-+-++--+---8--+--+---++-+-59
-+-++--+-8-++-+--+++++++-+8-8+7+-6---++++-+++-8--9
----4----9-+85---5--4--+6---9+++-6-+5+-+-79-+---5-
-++--+----4---+-+6-+8++++-+--++--+--+--++-+--+--+-
+5-------+-+---+-6--+--+--+9--7-+-+-+-5+4-8++-5-+-
-9-+3--+---+4--9-55+++++-4--+--+++--+-++9-----5+-7
7-8+++-+-+--65988-9+-+-+----6---5+++--8+8+7-679---
-+-9--89-----+-+-+1-+----+-+--++-------+-+--4--+--
9-898-+----++++-+8---8---75---9--+-----+-95++---4-
-----9--6---7+-++------+---+-----7-++77++96--+-9-9
05899-----3+9-7+--2--+-+9----6---2+--77+-+---988--
-+---+-----+--------+---++-+-----87---++--+--3+---
-7+-----+++-+8--7--++-+6--+8--3-+---+9-++859-+-+--
+------+-+--------8+---+-+6-7+-+---34--++--+59--65
--9-----+8++-----8--+7------+4--335---7+3+9------4
8-8--+-+---+-2--5+-----9--8++-+--+--8-7+--6---++-8
9-+-5-97-++9----+--68-+---6+--6---7-7-1++4---8---9
+++7++---+-+--8+---+-9--+---+++++-++-5+-+---++-6-+
7---3776775-94+-8---7++--7--+--++9---+8-----------
+8+-5-+--8------53--------1+9++-+-+-+--+3-8+--+3-+
-7++-+-++-++-+-8--++----8--+-++--69---7----+-+---9
7-5-59-7-6-8---+--4-+8---+5-3-+-+-+4--6---++8+--47
-----7+--6+--9-+-3---+7------+-9++-++9--+----+-+-6
9-3+-----+-+------9-6-8++----+8-+7-98+--+7---798--
--7-8--74-4-+-6+---++------+--6---8--+9+-+6+------
8+---+-+-----+--7----7--8------+--++-++--------+--
8-+---+-----5-+56+9+----3+-+-6-+58--+--+8----4---4
---6-5--------4--------+-72+-6-+---+9------------7
7-0-48-5---+-7+-5-28-6+--4-------59++-++----------

Generation = 80, Population = 557.
+----+---+---+-----+-----++--+-----+---------+--9+
---+-----------9-----++--+-+------6-----6+----5+7+
-----------------+-----89--8-7---------+-+----9+--
--9---7+---++----------+---+----+---+-+++--+------
-----1----+---8-7--9-------+---+----------+------9
-------+-+-------------+---+---+---+-8------+-----
-----+-----+--------+------+-+-+---++-++-+-+------
++-----9--7+-++-++-----+--+---------+--+-+9-------
--------6---9---+----8----------++----+---5+-+-+-+
-+++-4---+-----+---+---+7+-+------+----+-------+-+
+--------------------+----+--+-----+-----------+--
+-+----+-----+----+---++----8--+-------+----2+--7-
--------5----+---------------++----+-+++4---------
8----+---+-+-------+-----------+-+-+-+-+-+-+------
+--+---------++-+--+-+----5--+---+-+-----8--------
-+++-----9-----------8-----+-----7++--------------
-+---+-------+-+---+-----+-+-+--+---+-----9--+---+
----+-+-------+---+-----8-----++----+-+----+9-----
-+---+-------------+---+-----+-----+-------9-+----
+----+-9---++---------+++--+--+-+----------++---9-
9------+---+---------8----8------+-+-------9---+--
--+----8---++--------+-+----++----87---+7+-+-6----
---++------------+----+++----++-----+----+-+---+++
-1-8-+--------------5--+-9-+---------------+----9-
-++---+---------+9----+++++-++--+---------+---+-++
-----+--+----++--6-----------+-+-------++----+----
-------------8-+--------------------+--------+----
-8+------+-98--9------++----9+----++---+++-+-9-+--
-------------+-+-+------+--+-----------+-+----+--+
--9+----------+-----+9-+-7----------+--+-----+--79
7+-+-+-+--------+--------+-+-+-6-8-+------9-------
-----+-----------+5------6-+---+-----------+------
---------+---+---7-----------+-+---+------------+-
+----------+------------------6---9-----++------5-
---8---+-+-------+-+-+-+-----------5---+-----+---7
-------+-+-+--9-8----+-----+------8----+6+--------
-------+---+-----+--+--+---+---------------+-----+
--+----7-----4----+----+----7+-+-------+----7-----
----+--+8--+-+9-----+------+--+--+---8--+--+-++---
--+------78+--+------+-----------------+-+8-------
-------8++--+99+---+---+--------++----+---9-------
99+--+-+-+---+-----+--++++---++---++---+-7---+---9
---------------+----+--------7-+----+-----------6-
-----8+--8---++----+-------+-+-+---+--3+---+++---+
9--+---+-----------------------+-----------+-8----
+----9------+-----+-+--+--+-----+---9--+-----+--4-
-------+---+-+-9-8-++--++----++----+-------+--+--+
---+-------+5--5-----------+-+-----+---+---+-5-7--
-9-98--9-------8-----------+-----+-------+--------
---+-9--------+---7----9-7-8--------+-+----+------

Generation = 90, Population = 1249.
+---+++-9+-+6+8---8+-+67--++--+++99+-++--+-+------
+--++-++-++--++-9+++++-+-+++-+---+++6----+++-+--+-
++-+----+---6------+++7+++-++9-+++++--++-++-8++-++
+7++++----7+---+--+--++--+--7-++--+-----+-+-+----3
-+-+----8++-8----+-+-+-++-+-8++-++-+-+-+++-+---+--
+-++-++---+-++++-+++-+--+---+-4++--+--4+--5---+-+-
--+-+-+-++7+++---+-+++++-++-++---+-++++-----++---+
++----+---9--++++-++++++-+++---+-+-++-++----+++-5-
--++--7+++8-++-++-++-97----+------+-++--+-5-+++--+
++++-6--+------+-++-++++----++7+--+-+++--+-9+--++-
-+----6--+---+++-+-9---+-++----++-6--+7+9---+9-+++
--+++8-++-----+--+-+++++++-+--+++-++-8--+-6--+788+
-+--+-+----+-+--++------9+-----++-8-+++----------+
+-+--+7--+----+-++-+-++++--+--++++-++--------+8-5+
--------+-+++-+-+-++++++-+-++-+-+++--+---9+++-+---
-+++-+8+-+++6-++-+----+++-++-++-+-+-++-+-+---+--+-
-+--+-9+++----8+--8+-+-+--++7++++-6++---++--6+---+
+-+-++-++--+-+-+-----+-+-+----+++-+---++----++----
+--+---++---++---++--7+---8-9-++-+9+-+++----++--7+
+-++++++------98+--++--+--++---+-++++-+----++-7-++
+++6++-+9--+++-+-+--+9-+--9--+++++--+------+++-++8
8-----++------++--+++--+-+---+-++9+9+-+-++-----+-+
---+--+-++---+-++++-----+-++-+-++--++-+-++-+-+-+++
-7+------+-+--++--++-++-8----++++7+----++++++-++--
+-+7-+--+-+--+++----++---++++-++---++++-++--+--++-
+6-+--++-+++7-+++9-----+----+-+-++--++-++9+---9--+
---+7---+-5+---+-+8+-------+----++-----+----++++9+
+-+--++-+--++-+-+++++-+++-+-+-----+---+--+-+++9+--
+-7---9+8+-+--------+---+--+--+--+-+-+-+-+-+--+---
+---+-++--++--+--+--++++---+-+--+-++-+-++-6-++++9+
+-+-++----++--+++89+-+-+-+--++----+-++-+++9+--7--+
--++-+----5+++++++--------8-+-+++--5-8++9-7++-+8++
+--------+-++++-++89++-----+9-8+--9+--+--+-++7+-+-
-+++---+-+-+-+-+8--++-+--++9+-+++----++++-+------+
++99--8+9+-+--+9+++------+7+-------6-++-+--+++++++
+--8-8-------9+5+-+++++---+++9+++--------+++---+-7
+--9-+9+--7+--9--+---+9-+---+---++---9---++-7---+-
---+-+--+---+6-7-++7++-++-+-8++-+-++-95-+-5-7-998+
+----+++++--++--+-+-+++------++-+--+---+-+--++++++
+----+-8+--+-8-+9-----+++-+----+++++-+-+++9----9-9
+---+++-+--+++++-7-+-----+2+-++++---+++-7+-++-+6-+
--+----+-+-+-----9-----+---+++-+++-++-++-8+++--+8+
9--++--+6+4--96-7--+-+++6----9+--++4--7-+5+---7+9+
----++--+--+8++-+5--+++--8-+-+-+++-+++5--+----8---
--9+-+-+--3+--6-8-+----+++-+8+--+--+-+---8-+--+---
++--++9---------+9++--+-+++++-----++-++-+--+---+-9
+--+9+9+----+++++-++--9++------++-++-+------++--++
+6-+-+---+++-+-6-+-+----4---5-4+---+---+++-+------
--+---7-645--+7--4----++++--+-4+9+4-+7-+5---7-9--+
-+6+-+--87--7+-9757---+--+-+-68--++++-+-7+++6+45-+

Generation = 100, Population = 1157.
--++-++-------9--8---+8--+---+-+++-+---+--+--+-+--
-+++----+++++-++--+--+-+++-++---+++-+++---++-+-+--
++-+---++-7-6---++--++-+++9--+7-++---++--++--++---
+9---+-----+----++--+--++--++++++3++-+--+9------6-
++-+-5-++-++---+-+--+--+-+-+++----++---+------7--+
++--+--+++--++--+---++-+-9--++--+-----6----+++----
----+---++-----+-+-----++-++---+-----++--+----++--
++--++-----+-+++--+-+----++-+--+-++++-+--+---+---+
--++-+8--+----7++----++-++-+-++--++--+-++---+-----
-+++----+-+-++-+--+++++++----+---++-+----+-+--+++-
-----+-+9-9+7++++--++--++-++----+--+-+9-+-++-++++-
---+++++--+---+--++-+-++-+-+-++++------+++9-7---+-
-+++-------+---+++---+---++--+------+-++9++-----++
+++--++---++---++-+++++-+-++8++-+++-+-+-+-++--9+8-
-+-+-+++-+++--++-++---+-++6-+-+---++-+---+--+++++-
-+++---+-+-+8++-+++--+-+-----+-+-++----+9---8-+-+-
-+++++9--+-++-8+++-+--9+++---------+--++-+--7-+---
+-++------+---+++-+-+++---+--++-+-+-+++-9++-+-+-++
-+--+-++-+---++--+--+8----+-+--+---+-+----++------
+++--+--+++-++-+-+-++--+--+---+++--+++++--+-+---+-
---9-++---++-+9--+8-+-+++++---+--+-+++-+9-+-++--+-
-++--++---++-+-+----++++-+-+-----++--+-+---++++-++
-++--++++++---++-+------++--+--+-+++-+------+-+++-
+++-+-+--+-+-9-+78+++---+---+-+++-+-++--++-+--++--
++--++++-+-+---+----++-----+--+++-+++--+-+-------+
+-+-++---+++-+---+-----+++----++-+--+---+--+-+--+-
--9+--+---8+--------+-+-+--+-++++--+---++-++-++++-
++---+-+--+-+-+-+--++++-----++--++--++-+-+-++---+-
+++---++-+4+-+++--5---++--5+-++--+--+---+++-8--+++
+++--+-++--+----+-+--+---+8--+-+--+-+---++-+++++--
++-+-+-----+-+--+--++--+++---+----+---++-++--+8--+
---+-+--5+--++--+++----++------+-+--8-+----+-+---+
+-------+--+-+-9---+-+---+++--------+-+------+++-+
--++++--+++-+++---++++++---++-+++-+7----+++++--+--
+--+--+--+9+-++9----+-+-+--+-++++--9--++-++++-+++-
-8+-----+++-+---+----+---+-+--++-+8-8+--+---++--+9
--++-+-----+---+-+----++-+-+---+-------+++++-+-+-+
----++++---++-+---+8-++-------+-+---++--++--9+--+-
-+-+--+--+---++----+-+----++-+-++-+--+--+-+-++-+-+
---+-+-+-+----+----+---++++++++-+-++-+-++--+-+--7-
++-+----+---+---+8---+-++--+++-+++++--++-+++--++--
-+--+--+++-++-9-+++-+------+++--+-+-+---+-+-++---+
+--+-++-+-8--+6+8+-++++-----8----+---+---8+++---++
-----+--+--+++--+--++----++-+++++--++--+-+-+++---+
----+---++6----++----+-----+--+-++9-+++9---+--++++
+++--+--7-+++-++-++++-+-+--+++9---+++++-++-+---++-
--+--+---+--+--++--+++-++--+---+-+++-++-++++--++--
--+-----4+-++++-+--++8+-7--+-+-+--+--+-++--+---98-
-----+8+8-7-+++++7-+-+--+--+-+--9--+--+---++8-+--+
+---6-+---++++++98--++-+8-+++88-+-+-+7++--+-+--88-
