*** Life<FredkinCell> 5x11 ***

Generation = 0, Population = 7.
--0-----0--
--00-------
----0-----0
-----------
----0------

Generation = 1, Population = 14.
-01----0-0-
-0-1----0-0
--0--0---0-
----------0
---0-0-----

Generation = 2, Population = 16.
0-2---0-0--
01--00-----
----0-0---0
--00-------
--0---0---0

Generation = 3, Population = 25.
10-00----0-
-2-1-10-0-0
000-10-0-0-
-0-1-------
-01--0-0-0-

Generation = 4, Population = 17.
2---1-0----
0-02--10---
1-1-2-0-0--
-----------
0-2-0-----0

Generation = 5, Population = 20.
302---1----
---30121---
2-20--10-0-
------0-0-0
-----0---0-

Generation = 6, Population = 17.
4-3-1-2----
-20-----00-
--3---2-0--
0-01--10---
----0------

Generation = 7, Population = 25.
-04----000-
-3130--1-10
2----0301--
---2-0-1---
0-2--000---

Generation = 8, Population = 11.
4---1-2----
--2-1-----1
--3-----2-0
-----------
----0---0--

Generation = 9, Population = 28.
-0402--0--0
033-212-012
-0402--0--1
--0-0-----0
---0-0-0-0-

Generation = 10, Population = 13.
--5-------1
1-4-3-3-1-3
----3------
--1-1-----1
----0------

*** Life<FredkinCell> 9x17 ***

Generation = 0, Population = 28.
--0-----0--0-----
----0--000-------
-0--------0-----0
-----------------
----0--0-0------0
---0-0-----------
000-0-----0-0----
------0--0------0
0--0---------0---

Generation = 1, Population = 63.
-0-00---1-0-0----
-000-00111-0----0
0-0-0--00--0---0-
-0--0--0-00------
------0---0----0-
00----00-00-0---0
1-10--0------0--0
-00000-00---00-0-
-00-0-0--0--0-0-0

Generation = 2, Population = 73.
010-1-0-20-0-0--0
--1--1-2-201-----
--101--1-0-10-0--
---010-101-------
0---0010-0-00-0--
-1-0-011-1------1
2-----10000-010-1
---111-11--0--0-0
0--010----0010-0-

Generation = 3, Population = 75.
1----0-03-01--00-
0---0-0313-2-00-0
-0-1-00-0-0-1--0-
0-----02-20------
---0--210--11--00
0---0--20--0-0-02
----00--11101----
--0-2-0---0100101
-00-2-000011-10--

Generation = 4, Population = 53.
21----0--01-0--1-
1------4-4-301---
0---111-1-11-----
------1--3------0
--0--0------2-0--
-1--1---1--------
2-1011----2--10--
--1--11--01-112-2
01--3-----2-1---0

Generation = 5, Population = 75.
-20--0--3-211-0-0
----010-15--1200-
10-12--1--2--0--0
0-0-1022---00-00-
---0----00-1---00
--0-20-2-10-00---
-0--2---1-30---01
--2-2-21112--2--3
12-0--0---3-2-001

*** Life<FredkinCell> 5x13 ***

Generation = 0, Population = 9.
-----0-0-0---
00-----0----0
-------------
-------0-0---
-------------

Generation = 1, Population = 23.
00--0--1--0-0
110--00100-0-
00-------0--0
------0---0--
-------0-0---

Generation = 2, Population = 19.
---0---2---0-
2-10-1-2--0-0
-----0-0-1---
00---0---0-00
-------------

Generation = 3, Population = 35.
0--100030----
--2--2--0--0-
-0000--1-2-0-
110-010001-11
00---0---0-00

Generation = 4, Population = 26.
-0-2-1---0-0-
2-3003-21-010
-----0-2-3---
---0-2-1-2-2-
-----1-0-1---

Generation = 5, Population = 30.
--030203--01-
-141-4--2-121
0-0-----04--0
--0---------1
---002-1-200-

Generation = 6, Population = 27.
---4-3-4-0---
-2--05--30-3-
-0---0-2-5---
111-02-10-0-2
---1-3---3-1-

Generation = 7, Population = 38.
-00-04--0101-
234-160241--1
----0--3-6-00
222013--1--2-
00--0401--0--

Generation = 8, Population = 20.
---------2-2-
34--27-352-32
-----0-4-7---
-3-----1---3-
-----5-2-3---

*** Life<FredkinCell> 10x19 ***

Generation = 0, Population = 40.
0--0-0-----------0-
------------0----0-
--------0-0-------0
0---000------0-----
--0-0--0---0-------
--0----0-0--0---0--
--------0-0-0-0--0-
----0----0--0-00---
---000-----0-----0-
---0----------0----

Generation = 1, Population = 79.
-00---0-----0---010
0--0-0--0-00-0--01-
0---0000---000-----
-000--1-0-000-0---0
001-1--1000--0--0--
-0100-010---1000---
--0-0---------1---0
----1-------1--10--
--0-110--00----00-0
--01-0-----0-0-0-0-

Generation = 2, Population = 99.
-11----00-0----0-21
1---010---1--100---
1-0011110-011---000
0-110-2-10-1---000-
1-2-200-----010--00
----1-12--002111--0
--10-0000-----2000-
---0--0--000-0---0-
-010-210011-0001-0-
-0-201---0-----10--

Generation = 3, Population = 99.
-22000-11-10-0-1-32
2----2-0-0---2-----
---1-2---0-22-00-11
--221--0-10200-1110
2-303-1-0000-2-0---
0---2-2--01-32---01
-02-01-11---00-1---
-00-10-00-11110---0
0--11-2----011--010
010----0-1--00--1--

Generation = 4, Population = 80.
-3------2021-1---43
--0----101---3-----
1--2131-0-0---1-0--
00------121-1-02-2-
3--14-211------1---
1----03-0--0-31-012
----1-0-----112-00-
---02-0---22--1-0-1
1012-2-001---2-1---
--1-0-----0---012-0

Generation = 5, Population = 104.
0--------1-2-20-054
2---02-2--1004--010
2--3--21--122-20---
112--0--2-------1-0
--3250--2-000202--0
20-02142101-3--1-23
0---21-11-00223-1-0
00---01-0-33-12110-
2-2---21-2101--20--
0-22---00--0--123--

Generation = 6, Population = 88.
13--00-12-230-1--6-
-0--13030---1-0--2-
-----33--0-3-03101-
---2-1--32---0-2--1
-0-361---0--1------
-11----3--2--312034
-0---2--201133--2-1
11------1044--32-1-
-03------32-2-031--
1--30---1--1-023-0-

Generation = 7, Population = 90.
2-20--0---3---21074
-100--14--1024----0
-0-3-4--01--2-42---
-1231--04312-103---
313---21-1-0-20-00-
222-2-4--03-3---1--
----2-0--1-2--313-2
22---0-0----1------
2-4-1---0----21-21-
---411-0----013-3-0

Generation = 8, Population = 82.
-3--001--14-0-3----
--111--5----350-0-1
2---1--1--133---0-1
-2342---5---1----2-
--4--1--2--11--2-10
-3--3---114-------4
--20321-221-334----
-3--2-1--0-----2-11
30-222-1-3--2----2-
1--522-----112--40-

Generation = 9, Population = 91.
2-----2-225-12410-4
2-2-2--601--4---1-2
---3-432-12-4-42112
-34-----6312-1-3-31
-15-6-21---2-20----
2-2-414322---312--5
-03---------4-5--0-
-4-0--2------1----2
------2--42-3--3---
2-2-3-00-10223335-0

*** Life<FredkinCell> 7x14 ***

Generation = 0, Population = 18.
--0---00------
-0--0--0------
--0---00-0----
-0-----------0
---0-------0--
0--0-0---0----
--------------

Generation = 1, Population = 47.
---0001-0-----
0-00-00-00----
-0-0001---0--0
0--0--00-0-00-
000100---00-00
-001--0-0-00--
0--0-0---0----

Generation = 2, Population = 39.
0----1--1-----
-011-11--1---0
0-01-12-00----
10--00-1-1-1-0
-11--100-----1
0-12-0-----1-0
---1-------0--

Generation = 3, Population = 49.
--0002-0-----0
012--2-0020-0-
1---02-01100--
--0-11-202---1
0----2--00--0-
-0---1-0--02-1
0--200----0100

Generation = 4, Population = 34.
0------1-00---
----0--113-0--
2--1-3-1--11-0
-0---2---3-1--
--1---00-----1
0-12---------2
--03--00-0-2--

Generation = 5, Population = 48.
-0--0-121-1---
------12---100
--0-04-2-122--
---013--0-020-
0-2---1100-002
--2-0----0-203
00--0011----00

*** Life<FredkinCell> 13x6 ***

Generation = 0, Population = 18.
------
------
-----0
----0-
-0----
---0--
-0-0--
0-0---
---0--
00----
---00-
---0-0
-0-0-0

Generation = 1, Population = 32.
------
-----0
------
-0-0--
0-000-
--010-
--010-
-0-0--
-0--0-
110-0-
000-1-
-00-01
0--1-1

Generation = 2, Population = 28.
-----0
----0-
-0-0-0
--01--
-0---0
001-10
-----0
01010-
----10
-----0
--1---
0--0--
----02

Generation = 3, Population = 36.
------
-0---0
0-010-
-01-0-
-100-1
112-21
---101
1----0
000---
--0--1
00---0
-0---1
0---13

Generation = 4, Population = 32.
-0---0
---0--
------
--2-1-
-2-1-2
22---2
-0-212
2-01-1
---0--
-11002
1---1-
010---
---12-

Generation = 5, Population = 44.
0-000-
-00-00
--010-
---1--
-30-03
332---
010--3
-11202
000---
-2-113
20--2-
--1---
00-233

Generation = 6, Population = 37.
-0----
-11-11
---2--
-02210
---114
--312-
--1--4
22----
1--0--
1-1224
3---3-
-1---1
1103-4

Generation = 7, Population = 44.
01--00
0-2022
--030-
01--2-
-302--
-3-2-2
0-2---
-3-2-2
---1-0
--2335
4-1-40
02-0-2
22-4-5

Generation = 8, Population = 36.
-2----
11-1--
---41-
1-2230
-4---4
-4-3--
---2--
--13-3
-0--1-
12-446
502--1
1-110-
---5-6

*** Life<FredkinCell> 15x17 ***

Generation = 0, Population = 53.
--------0--0-----
0-------00--0----
-0-----------0--0
--0------0-0--0--
------0-0------0-
--------------0--
---------000----0
--0--------0-----
0-----0-0--0-0---
---0000----------
-----------0--0-0
-------0-0-0----0
--0-00-0---------
-0-0--0---0----0-
-00-00-----0-----

Generation = 1, Population = 105.
0------01-0------
-------0-10-----0
--------0--0---0-
---0--0-----0---0
--0--0-----0--0-0
------0-0000-0--0
--0-----01--0-00-
00-0--0-00--00--0
-0000-1--001--0--
0-01---00----00-0
---00000-00100--1
--0-0001---10-001
---011010000---00
01--00---0----0-0
0-1011------0--0-

Generation = 2, Population = 110.
-0----0-2010----0
0-----01-2-------
---0--0-------0-0
----0--00--0-00-1
-0--0-0-00-1-----
---------1--0-0-1
0------012--1-110
1--1-01--1---10--
0-1-1-2-0--2-010-
-0-2000-10------1
0-0-111101-21-0--
-0--1--2--02-0112
00-1--12-1----0-1
-2-011-0-1-000--1
102-2-0--0-0-0---

Generation = 3, Population = 141.
--0--01031-10--0-
---0-01203-0--0--
0-0--01000-0--1-1
-0--1001--01-1--2
0-001--0---2-0---
00--0-000-0-1-102
10-0-0-1-300202--
-0--01--0200--100
10--2---100---21-
0--3-1102-0-00---
---022221-0-201--
01--2-0--01-01---
11-21-23-2--0010-
0-0-22-1-------02
213031--01-1010-0

Generation = 4, Population = 122.
-0--0-214---10--0
0-0--1---4---01-0
-0---1--1-0-0-2-2
0-0--112--12-2-03
1-1-2-0---0301-0-
1--0101-111-2---3
-1---102---13-31-
1-0---1-------211
--1-302-211-0----
1-04--2130----00-
-00-33-3-1--3-20-
--00-0-2----1211-
2-0321---3-0-1---
--1-3-02---0--0--
--4-4-0-12-2--101

Generation = 5, Population = 135.
---0-03-5--12--01
---0-2-20---0----
0-0-0----010--30-
1010--23-02--30--
--203---0-141--10
2--121202-----10-
1--0---3-3-2----0
-01101--0200-1-22
-0-04-30-22--0--0
-01501-241---0--1
-11-4-2-120240311
0-1----30----32-2
--143---0--10210-
02-0-2-3--0-0-1-2
-15-5-1023-301--2

Generation = 6, Population = 139.
--01--416112-0012
0--10313--00101-0
101---1---21---12
----11340-32-4-03
-------010--2-0-1
30-23--1--1-202-3
2---0--4-40330311
----12-01-1--2-33
1--15-4--3--0-2--
1126-2--5200-----
--2053--23----4-2
-1-----41-1-143-3
---54--313-213-11
1--1--040-----203
--60-121-40412-03

Generation = 7, Population = 122.
001----2--2-2-1--
1-0-------1--1---
--2--1-01032----3
10102-45-0--0-0-4
10-0-0-1211-3-11-
-1-3-12--1203130-
3-----0-15--4-422
----231-2-2-03---
2-------242--0--0
--37-3-2---1----1
01-1--2-3-024-5-3
0----00-2--2-5-1-
211-51-4-4032---2
-2-------10--03-4
217--23-25---31--

Generation = 8, Population = 124.
---1--4-613--0-1-
20-1-3--0-------0
------1--143-0314
-1213-56--3-1-105
-12-31-----4-12--
32-4----223----1-
---001----0----33
---13-----3----3-
-0115-4------1211
--4---2-5202-000-
-22253334-1-50-14
-110---43-1---3-3
-22-6-2-1-14331-3
1-1-3-04-2------5
3280534-3---1--03

Generation = 9, Population = 138.
00120-----422----
31-2--1314-0--101
1-2-0-2--25401425
1-3--1-70-4---21-
-2---2-1211-32-11
4-053--13----1-2-
3101120-1--3--444
-0-24-1--240-3--3
2122--5024-20-3-2
-1-7---2--1301111
0--3--4453-26----
02--200-4----541-
--357-3-24-------
2--1-215---0-03--
--9-6--1---4-311-

*** Life<FredkinCell> 6x7 ***

Generation = 0, Population = 7.
---0---
-0---0-
-0-----
----0--
-0-----
0------

Generation = 1, Population = 19.
-00-00-
01000-0
010-00-
---0-0-
--0-0--
-------

Generation = 2, Population = 13.
---0-1-
----1--
-2-----
000--10
-0-0---
--0-0--

Generation = 3, Population = 18.
--0-0-0
-1-----
-3--000
1-1-021
-1---00
---0-0-

Generation = 4, Population = 12.
-------
02---0-
-4-0-1-
------2
---0-1-
-00--1-

Generation = 5, Population = 21.
00---1-
1-00110
-5---2-
-0---2-
-1---2-
011-020

*** Life<FredkinCell> 14x20 ***

Generation = 0, Population = 33.
0------0-------0----
-----------0--0-0-0-
--------------------
-0------------------
--------0-----------
----0-------0-------
---0----------------
0-------------------
--------------------
-------0-------0----
-0--0------0-0-----0
0---000-0---------0-
----------0-0--0----
-------0--0----0--0-

Generation = 1, Population = 87.
-0----0-0--0------0-
0------0--0-00-0---0
-0---------0--0-0-0-
0-0-----0-----------
-0--0--0-0--0-------
-----0--0--0-0------
0-0---------0-------
-0-0----------------
0------0-------0----
-0--0-0-0--0-00-0--0
--001-000-0---00----
---0--1--00000-0-0--
0---0000001--0010---
------0-00100-0100-0

Generation = 2, Population = 92.
--0--0-0-0---0-0-0--
-0-------0--110---0-
0------00------0----
---00------00-0-0-0-
---0--0---0---------
000---0---0---0-----
-0---0--0-----------
0-0-0--0----0--0----
-0-00------0-0-----0
----1-1-10---1---00-
--11--1--01000---0-0
0--10--00-------0-0-
-0--1---1-200-1--0-0
0---0-10-12-10-211--

Generation = 3, Population = 132.
---00----10--10-----
-----0---1002210---0
---00-011--0-00-----
0-0-10000--11--0---0
00-1-010-01-0---0-0-
111---100010-0-0----
010------00-0-00----
---01-0-------0-0--0
--011000000-0100-0--
-0002-2-2-----0-0-10
002-102-0-----0--1--
-----0-1-----000---0
0-0--00020---0--010-
---01-2102-0-103--00

Generation = 4, Population = 86.
--011---0----------0
----0--0--11---10-0-
0--1---2-------0----
10---1--------------
1---0--1----1--0----
2------1---1--01--0-
-2--0--0---0-0-----0
000--01-0---------0-
--------1-1-1--1----
---13--0--0-0--0--21
11-1-1-010----------
-0-----200--0-11----
------1-3-200-111--0
0--120-21------4---1

Generation = 5, Population = 145.
-01--0---100---00---
0-001001-1222-1-1---
1-0--0031-00--01--0-
2100--0-----1-------
---1--120----0-10-0-
3-----1-0-12--1-00--
03-0---1--01---0--0-
1110-120100000-0-0--
0001100-2-2-21020--0
000-4-212-1-11010032
2--21--12-----0---00
-101-0------1------0
00-01----03-----2101
-002-123-2201--5--02

*** Life<FredkinCell> 17x7 ***

Generation = 0, Population = 21.
----0-0
-----0-
-0-----
0--0---
--00---
--00---
-------
-------
-0---0-
-------
-0-----
----0--
0--0---
00--0--
-------
-----0-
0------

Generation = 1, Population = 44.
---0-0-
-0-----
--00-0-
---10--
00-10--
-0--0--
--00---
-0---0-
0-0-0-0
-----0-
0-0-0--
00---0-
1-0-0--
-10--0-
00--00-
0---0-0
-0---0-

Generation = 2, Population = 47.
-00---0
0------
--1-0-0
00-2---
1---10-
-1-010-
-011-0-
--00---
-0-----
----0--
10---0-
110-0-0
2-1--0-
0--0010
---0---
10-01--
--0----

Generation = 3, Population = 58.
-110-0-
----0--
---0---
-10-000
20-1--0
-20-210
0-22010
-0--00-
0--00--
0--0---
----0--
22-----
-02-010
11---21
-00-000
210-20-
0---0--

Generation = 4, Population = 55.
02-10-0
-000---
-0--000
--1-1--
31--10-
0----21
-------
0--01--
1-0----
10010--
-0---0-
3----00
213-12-
220-032
01-----
-2--3--
1-001--

Generation = 5, Population = 59.
1-1-1--
-1--00-
011---1
01---00
-2-1---
1-----2
---2010
10-120-
-010---
-11-1--
11-0-1-
420--11
32---30
3----43
-2---00
23--40-
-01--0-

Generation = 6, Population = 64.
-2--2--
0200-1-
--20002
-2-211-
33--10-
----2-3
-02-12-
2-023--
-12-00-
-2-----
-2--02-
5-1-02-
4---141
42--054
030--1-
34-051-
--20-10

Generation = 7, Population = 49.
-3-----
131--2-
01--1-3
-31--2-
4-0-2--
1-00---
-1-223-
--1-40-
---0-10
1------
-3-0--0
62--13-
--302--
5--0---
1-1-0--
-----2-
1-3-1-1

Generation = 8, Population = 40.
-4---0-
--20---
-220---
0--21--
53-1---
22--22-
----3-0
-----1-
1---0-1
-----0-
14-----
7--0-4-
--41---
62010--
2--0---
----5--
-----1-

Generation = 9, Population = 47.
1--12-0
-3--02-
-331---
13-322-
6--220-
--0--3-
01-24--
2---4-0
-1-0---
-2-----
-500---
8--1--1
---2-4-
--1-15-
3--10--
3------
------1
